\relax 
\catcode `"\active 
\babel@aux{russian}{}
\@writefile{toc}{\contentsline {paragraph}{Определение}{2}\protected@file@percent }
\@writefile{toc}{\contentsline {paragraph}{Аргументы за}{2}\protected@file@percent }
\@writefile{toc}{\contentsline {paragraph}{Аргументы против}{2}\protected@file@percent }
