\relax 
\providecommand\hyper@newdestlabel[2]{}
\catcode `"\active 
\providecommand\HyperFirstAtBeginDocument{\AtBeginDocument}
\HyperFirstAtBeginDocument{\ifx\hyper@anchor\@undefined
\global\let\oldcontentsline\contentsline
\gdef\contentsline#1#2#3#4{\oldcontentsline{#1}{#2}{#3}}
\global\let\oldnewlabel\newlabel
\gdef\newlabel#1#2{\newlabelxx{#1}#2}
\gdef\newlabelxx#1#2#3#4#5#6{\oldnewlabel{#1}{{#2}{#3}}}
\AtEndDocument{\ifx\hyper@anchor\@undefined
\let\contentsline\oldcontentsline
\let\newlabel\oldnewlabel
\fi}
\fi}
\global\let\hyper@last\relax 
\gdef\HyperFirstAtBeginDocument#1{#1}
\providecommand*\HyPL@Entry[1]{}
\HyPL@Entry{0<</S/D>>}
\babel@aux{russian}{}
\@writefile{toc}{\contentsline {chapter}{\numberline {1}Введение}{5}{chapter.1}\protected@file@percent }
\@writefile{lof}{\addvspace {10\p@ }}
\@writefile{lot}{\addvspace {10\p@ }}
\@writefile{toc}{\contentsline {chapter}{\numberline {2}Описание организации}{6}{chapter.2}\protected@file@percent }
\@writefile{lof}{\addvspace {10\p@ }}
\@writefile{lot}{\addvspace {10\p@ }}
\@writefile{toc}{\contentsline {section}{\numberline {2.1}Основная информация}{6}{section.2.1}\protected@file@percent }
\@writefile{toc}{\contentsline {section}{\numberline {2.2}Структура организации}{6}{section.2.2}\protected@file@percent }
\@writefile{toc}{\contentsline {chapter}{\numberline {3}Разработка транспортной подсистемы локальной вычислительной сети}{7}{chapter.3}\protected@file@percent }
\@writefile{lof}{\addvspace {10\p@ }}
\@writefile{lot}{\addvspace {10\p@ }}
\@writefile{toc}{\contentsline {section}{\numberline {3.1}Схема предприятия}{7}{section.3.1}\protected@file@percent }
\@writefile{toc}{\contentsline {section}{\numberline {3.2}Требования к сети}{7}{section.3.2}\protected@file@percent }
\@writefile{toc}{\contentsline {section}{\numberline {3.3}Выбор топологии сети}{7}{section.3.3}\protected@file@percent }
\@writefile{toc}{\contentsline {section}{\numberline {3.4}Выбор оборудования}{7}{section.3.4}\protected@file@percent }
\@writefile{toc}{\contentsline {section}{\numberline {3.5}Адресация в ЛВС}{8}{section.3.5}\protected@file@percent }
\@writefile{toc}{\contentsline {chapter}{\numberline {4}Расчет стоимости и эксплуатации локальной вычислительной сети}{10}{chapter.4}\protected@file@percent }
\@writefile{lof}{\addvspace {10\p@ }}
\@writefile{lot}{\addvspace {10\p@ }}
\@writefile{toc}{\contentsline {chapter}{\numberline {5}Заключение}{11}{chapter.5}\protected@file@percent }
\@writefile{lof}{\addvspace {10\p@ }}
\@writefile{lot}{\addvspace {10\p@ }}
\@writefile{toc}{\contentsline {chapter}{\numberline {6}Список использованных источников}{12}{chapter.6}\protected@file@percent }
\@writefile{lof}{\addvspace {10\p@ }}
\@writefile{lot}{\addvspace {10\p@ }}
\@writefile{toc}{\contentsline {chapter}{\numberline {A}Схема предприятия}{13}{appendix.A}\protected@file@percent }
\@writefile{lof}{\addvspace {10\p@ }}
\@writefile{lot}{\addvspace {10\p@ }}
\newlabel{fig:schema}{{A}{13}{Схема предприятия}{appendix.A}{}}
\@writefile{toc}{\contentsline {chapter}{\numberline {B}Служба каталогов}{14}{appendix.B}\protected@file@percent }
\@writefile{lof}{\addvspace {10\p@ }}
\@writefile{lot}{\addvspace {10\p@ }}
\newlabel{fig:schema_nw}{{B}{14}{Служба каталогов}{appendix.B}{}}
\newlabel{LastPage}{{}{14}{}{page.14}{}}
\xdef\lastpage@lastpage{14}
\xdef\lastpage@lastpageHy{14}
