\relax 
\catcode `"\active 
\babel@aux{russian}{}
\@writefile{toc}{\contentsline {section}{Задание}{2}\protected@file@percent }
\@writefile{toc}{\contentsline {paragraph}{}{2}\protected@file@percent }
\@writefile{toc}{\contentsline {section}{Анализ добросовестного письма}{2}\protected@file@percent }
\@writefile{toc}{\contentsline {paragraph}{}{2}\protected@file@percent }
\@writefile{lol}{\contentsline {lstlisting}{\numberline {1}Заголовок письма}{2}\protected@file@percent }
\@writefile{lof}{\contentsline {figure}{\numberline {1}{\ignorespaces Результат пингования отправителя через IP-адрес}}{3}\protected@file@percent }
\@writefile{lof}{\contentsline {figure}{\numberline {2}{\ignorespaces Результат пингования отправителя через доменное имя}}{3}\protected@file@percent }
\@writefile{lof}{\contentsline {figure}{\numberline {3}{\ignorespaces Результат трассировки отправителя через IP-адрес}}{4}\protected@file@percent }
\@writefile{lof}{\contentsline {figure}{\numberline {4}{\ignorespaces Результат трассировки отправителя через доменное имя}}{4}\protected@file@percent }
\@writefile{toc}{\contentsline {paragraph}{}{4}\protected@file@percent }
\@writefile{toc}{\contentsline {section}{Анализ недобросовестного письма}{5}\protected@file@percent }
\@writefile{toc}{\contentsline {paragraph}{}{5}\protected@file@percent }
\@writefile{lol}{\contentsline {lstlisting}{\numberline {2}Заголовок письма}{5}\protected@file@percent }
\@writefile{lof}{\contentsline {figure}{\numberline {5}{\ignorespaces Результат пингования отправителя через IP-адрес}}{5}\protected@file@percent }
\@writefile{lof}{\contentsline {figure}{\numberline {6}{\ignorespaces Результат пингования отправителя через доменное имя}}{6}\protected@file@percent }
\@writefile{lof}{\contentsline {figure}{\numberline {7}{\ignorespaces Результат трассировки отправителя через IP-адрес}}{6}\protected@file@percent }
\@writefile{lof}{\contentsline {figure}{\numberline {8}{\ignorespaces Результат трассировки отправителя через доменное имя}}{7}\protected@file@percent }
